<svg version="1.1" id="Layer_1" xmlns="http://www.w3.org/2000/svg" xmlns:xlink="http://www.w3.org/1999/xlink" x="0px" y="0px" viewBox="0 0 31 32" style="enable-background:new 0 0 31 32;" xml:space="preserve">
	<style type="text/css">
		.print-management-st0 {
		fill: #ff595e;
		}
		.print-management-st1 {
		fill: #FFC5CD;
		}
	</style>
<polygon class="print-management-st0" points="10.8,4.4 10.8,8.9 18.2,8.9 18.2,26.6 22.6,26.6 22.6,8.9 30,8.9 30,4.4 "></polygon>
<polygon class="print-management-st1" points="2,16.2 6.4,16.2 6.4,26.6 10.8,26.6 10.8,16.2 15.3,16.2 15.3,11.8 2,11.8 "></polygon>
</svg>