<svg version="1.1" id="Layer_1" xmlns="http://www.w3.org/2000/svg" xmlns:xlink="http://www.w3.org/1999/xlink" x="0px" y="0px" viewBox="0 0 62 64" style="enable-background:new 0 0 62 64;" xml:space="preserve">
	<style type="text/css">
		.media-editors-st0 {
		fill: #ff595e;
		}
		.media-editors-st1 {
		fill: #FFC5CD;
		}
	</style>
<path class="media-editors-st0" d="M37.9,23.4l2.7,2.7L14.4,52.2h-2.7v-2.7L37.9,23.4 M37.9,15.2L6,47.2V58h10.8l31.9-31.9
	C48.8,26.1,37.9,15.2,37.9,15.2z"></path>
<path class="media-editors-st1" d="M48.3,6c-0.7,0-1.5,0.3-2,0.8L41,12.1L51.9,23l5.3-5.3c1.1-1.1,1.1-2.9,0-4.1l-6.8-6.8C49.8,6.3,49.1,6,48.3,6z
	"></path>
</svg>