<svg version="1.1" id="Layer_1" xmlns="http://www.w3.org/2000/svg" xmlns:xlink="http://www.w3.org/1999/xlink" x="0px" y="0px"
  viewBox="0 0 511 511" style="enable-background:new 0 0 511 511;" xml:space="preserve">
  <path style="opacity: 0.3; fill: #256EFF;" d="M435.2,28c-5.4-5.4-14.2-5.4-19.6,0L308.8,134.8H66.6c-22.9,0-41.6,18.7-41.6,41.6v194
    c0,22.9,18.7,41.6,41.6,41.6h14.8v71.1c0,5.6,3.4,10.7,8.6,12.8c5.3,2.2,11.3,0.8,15.1-3.1l79.1-80.8h161.4
    c22.9,0,41.6-18.6,41.6-41.6V213.2L494,106.4c5.4-5.4,5.4-14.2,0-19.6L435.2,28z"/>
    <path style=" fill: #256EFF;" d="M436.1,28c-5.4-5.4-14.2-5.4-19.6,0L309.7,134.8H67.5c-22.9,0-41.6,18.7-41.6,41.6v194
      c0,22.9,18.7,41.6,41.6,41.6h14.8v71.1c0,5.6,3.4,10.7,8.6,12.8c5.3,2.2,11.3,0.8,15.1-3.1l79.1-80.8h161.4
      c22.9,0,41.6-18.6,41.6-41.6V213.2l106.8-106.8c5.4-5.4,5.4-14.2,0-19.6L436.1,28z M308.7,253.4l-39.2-39.2L387.1,96.6l39.2,39.2
      L308.7,253.4z M254.8,238.6l29.5,29.5l-50.6,21.1L254.8,238.6z M360.4,370.4c0,7.6-6.2,13.9-13.9,13.9H179.3c-3.7,0-7.3,1.5-9.9,4.2
      L110,449.2v-51c0-7.7-6.2-13.9-13.9-13.9H67.5c-7.6,0-13.9-6.2-13.9-13.9v-194c0-7.6,6.2-13.9,13.9-13.9H282l-41.9,41.9
      c-1.2,1.2-2.3,2.7-3.1,4.6l-38.4,92.1h-74.8c-7.7,0-13.9,6.2-13.9,13.9c0,7.7,6.2,13.8,13.9,13.8h84.1l0,0c1.8,0,3.7-0.4,5.4-1.1
      l100.5-41.9c1.7-0.7,3.4-1.8,4.6-3.1l41.9-41.9v129.6H360.4z M445.9,116.2L406.7,77l19.6-19.6l39.2,39.2L445.9,116.2z"/>
    </svg>