<svg  version="1.1" id="Layer_1" xmlns="http://www.w3.org/2000/svg" xmlns:xlink="http://www.w3.org/1999/xlink" x="0px" y="0px"
      viewBox="0 0 512 512" style="enable-background:new 0 0 512 512;" xml:space="preserve">
      <path style="opacity: 0.3;fill: #256EFF;" d="M414.8,32.1C407,24.3,396.7,20,385.7,20l-270.9,0.4c-2,0-4,0-6,0c-13.7-0.1-27.8-0.2-39.6,4.8
            c-14.2,6.1-22,18.8-23.2,37.7c0,0.1,0,0.3,0,0.4v356.1c0,0.1,0,0.2,0,0.3c0.7,16.7,13.6,34.7,39.9,34.7h128.6l9.2,11.9
            c0,0,0.1,0.1,0.1,0.1c8.9,10.8,21,16.9,33.5,16.9c0.4,0,0.8,0,1.3,0c12.1-0.4,23.4-6.6,30.9-17.1l9.2-11.8H386
            c22.5,0,40.8-18.5,40.8-41.2v-59.5l0.1-292.4C426.9,50.2,422.6,39.9,414.8,32.1z"/>
            <path style=" fill: #256EFF;stroke: #256EFF;stroke-width: 16;stroke-miterlimit: 10;" d="M177.2,180.3H244c3.8,0,6.8-3.1,6.8-6.8c0-3.8-3.1-6.8-6.8-6.8h-66.8c-1.9,0-3.5-1.6-3.5-3.5V104
                  c0-1.9,1.6-3.5,3.5-3.5h159.7c1.9,0,3.5,1.6,3.5,3.5v59.1c0,1.9-1.6,3.5-3.5,3.5h-61.5c-3.8,0-6.8,3.1-6.8,6.8
                  c0,3.8,3.1,6.8,6.8,6.8h61.5c9.5,0,17.2-7.7,17.2-17.2V104c0-9.5-7.7-17.2-17.2-17.2H177.2c-9.5,0-17.2,7.7-17.2,17.2v59.1
                  C160,172.6,167.7,180.3,177.2,180.3z"/>
                  <path style="fill: #256EFF;stroke: #256EFF;stroke-width: 16;stroke-miterlimit: 10;" d="M414.8,32.1C407,24.3,396.7,20,385.7,20l-270.9,0.4c-2,0-4,0-6,0c-13.7-0.1-27.8-0.2-39.6,4.8
                        c-14.2,6.1-22,18.8-23.2,37.7c0,0.1,0,0.3,0,0.4v356.1c0,0.1,0,0.2,0,0.3c0.7,16.7,13.6,34.7,39.9,34.7h128.6l9.2,11.9
                        c0,0,0.1,0.1,0.1,0.1c8.9,10.8,21,16.9,33.5,16.9c0.4,0,0.8,0,1.3,0c12.1-0.4,23.4-6.6,30.9-17.1l9.2-11.8H386
                        c22.5,0,40.8-18.5,40.8-41.2v-59.5l0.1-292.4C426.9,50.2,422.6,39.9,414.8,32.1z M108,34v178.3c0,3.8,3.1,6.8,6.8,6.8
                        s6.8-3.1,6.8-6.8V34l264-0.3c7.3,0,14.2,2.9,19.5,8.1c5.2,5.2,8.1,12.1,8.1,19.4l-0.1,292.4c0,15.2-12.4,27.5-27.5,27.5h-37.5
                        c0.7-6,0-11.8-2.4-16.9c-2.9-6.4-11.1-17.2-33.3-18.3c-0.1,0-0.2,0-0.3,0h-7.5v-66.1c0-9.2-7.8-16.7-17.5-16.7h-60.8
                        c-9.6,0-17.5,7.5-17.5,16.7v66.1h-7.5c-0.1,0-0.2,0-0.3,0c-22.2,1.1-30.4,11.9-33.3,18.3c-2.3,5.1-3.1,10.9-2.4,16.9h-43.7V243.6
                        c0-3.8-3.1-6.8-6.8-6.8c-3.8,0-6.8,3.1-6.8,6.8v137.5h-22c-11.1,0-19.8,3.3-26.2,8.3V63.5C61.6,35.3,79.3,33.8,108,34z M203.9,440.6
                        h-118c-18.6,0-25.7-11.5-26.2-21.5v-2.4c0.6-11,8.9-22,26.2-22h83.6c1.5,3,3.4,6,5.6,8.9L203.9,440.6L203.9,440.6z M278.8,457.8
                        c-0.1,0.1-0.1,0.1-0.2,0.2c-5.1,7.2-12.4,11.3-20.4,11.5c-8.6,0.3-17.3-4-23.7-11.8l-48.6-62.5c-2.3-3-4.1-6.1-5.3-9.3
                        c-0.1-0.3-0.2-0.6-0.3-0.9c-2-5.5-2.1-11-0.2-15.2c3.6-7.8,13.6-9.9,21.4-10.3h14.2c3.8,0,6.8-3.1,6.8-6.8v-72.9c0-1.6,1.8-3,3.8-3
                        h60.8c2,0,3.8,1.4,3.8,3v72.9c0,3.8,3.1,6.8,6.8,6.8h14.1c7.8,0.4,17.8,2.5,21.4,10.4c1.9,4.2,1.8,9.7-0.2,15.2
                        c-0.1,0.3-0.2,0.5-0.3,0.8c-1.2,3.1-3,6.3-5.3,9.3L278.8,457.8z M386,440.6h-76.6l0,0l28.8-37c2.2-2.9,4.1-5.8,5.6-8.9h41.7
                        c10.6,0,20.2-4,27.5-10.6v29C413.1,428.3,401,440.6,386,440.6z"/>
                  </svg>