<!-- Generator: Adobe Illustrator 23.0.6, SVG Export Plug-In . SVG Version: 6.00 Build 0)  -->
<svg version="1.1" id="Layer_1" xmlns="http://www.w3.org/2000/svg" xmlns:xlink="http://www.w3.org/1999/xlink" x="0px" y="0px"
	 viewBox="0 0 24 24" style="enable-background:new 0 0 24 24;" xml:space="preserve">
<style type="text/css">
	.advocatenew_st0{fill:none;}
	.advocatenew_st1{fill:#F7BA24;fill-opacity:0.3;}
	.advocatenew_st2{fill:#F7BA24;}
</style>
<path class="advocatenew_st0" d="M0,0h24v24H0V0z"/>
<path class="advocatenew_st1" d="M18,16.1c-0.8,0-1.4,0.3-2,0.8l-7.1-4.2C9,12.5,9,12.2,9,12s0-0.5-0.1-0.7L16,7.2C16.5,7.7,17.2,8,18,8
	c1.7,0,3-1.3,3-3s-1.3-3-3-3s-3,1.3-3,3c0,0.2,0,0.5,0.1,0.7L8,9.8C7.5,9.3,6.8,9,6,9c-1.7,0-3,1.3-3,3s1.3,3,3,3
	c0.8,0,1.5-0.3,2-0.8l7.1,4.2c-0.1,0.2-0.1,0.4-0.1,0.6c0,1.6,1.3,2.9,2.9,2.9s2.9-1.3,2.9-2.9S19.6,16.1,18,16.1z"/>
<path class="advocatenew_st2" d="M18,16.1c-0.8,0-1.4,0.3-2,0.8l-7.1-4.2C9,12.5,9,12.3,9,12s0-0.5-0.1-0.7L16,7.2C16.5,7.7,17.2,8,18,8
	c1.7,0,3-1.3,3-3s-1.3-3-3-3s-3,1.3-3,3c0,0.2,0,0.5,0.1,0.7L8,9.9C7.5,9.4,6.8,9,6,9c-1.7,0-3,1.3-3,3s1.3,3,3,3
	c0.8,0,1.5-0.3,2-0.8l7.1,4.2c-0.1,0.2-0.1,0.4-0.1,0.6c0,1.6,1.3,2.9,2.9,2.9s2.9-1.3,2.9-2.9S19.6,16.1,18,16.1z M18,4
	c0.5,0,1,0.4,1,1s-0.5,1-1,1s-1-0.4-1-1S17.5,4,18,4z M6,13c-0.6,0-1-0.4-1-1s0.4-1,1-1s1,0.4,1,1S6.6,13,6,13z M18,20.1
	c-0.5,0-1-0.5-1-1s0.5-1,1-1s1,0.5,1,1S18.5,20.1,18,20.1z"/>
</svg>
