
<!-- Generator: Adobe Illustrator 23.0.6, SVG Export Plug-In . SVG Version: 6.00 Build 0)  -->
<svg version="1.1" id="Layer_1" xmlns="http://www.w3.org/2000/svg" xmlns:xlink="http://www.w3.org/1999/xlink" x="0px" y="0px"
	 viewBox="0 0 24 24" style="enable-background:new 0 0 24 24;" xml:space="preserve">
<style type="text/css">
	.engage_st0{opacity:0.3;fill:#256EFF;}
	.engage_st1{fill:none;}
	.engage_st2{fill:#256EFF;}
</style>
<rect x="3.7" y="3.5" class="engage_st0" width="16.8" height="16.8"/>
<path class="engage_st1" d="M0,0h24v24H0V0z"/>
<path class="engage_st2" d="M13,7.5h5v2h-5V7.5z M13,14.5h5v2h-5V14.5z M19,3H5C3.9,3,3,3.9,3,5v14c0,1.1,0.9,2,2,2h14c1.1,0,2-0.9,2-2V5
	C21,3.9,20.1,3,19,3z M19,19H5V5h14V19z M11,6H6v5h5V6z M10,10H7V7h3V10z M11,13H6v5h5V13z M10,17H7v-3h3V17z"/>
</svg>
