<svg version="1.1" id="Layer_1" xmlns="http://www.w3.org/2000/svg" xmlns:xlink="http://www.w3.org/1999/xlink" x="0px" y="0px"
	 viewBox="0 0 511 511" style="enable-background:new 0 0 511 511;" xml:space="preserve">
<style type="text/css">
	.st0{fill:#FF595E;}
	.st1{opacity:0.3;fill:#FF595E;}
	.st2{opacity:0.3;}
</style>
<path class="st0" d="M2.2,397.2h56.2V341H2.2V397.2z M2.2,172.4h56.2v-56.2H2.2V172.4z M114.6,397.2H508V341H114.6V397.2z
	 M114.6,116.2v56.2H508v-56.2H114.6z"/>
<rect x="2.2" y="228.6" class="st1" width="56.2" height="56.2"/>
<g class="st2">
	<rect x="114.6" y="228.6" class="st0" width="393.4" height="56.2"/>
</g>
</svg>
